%YAML 1.1
%TAG !u! tag:unity3d.com,2011:
--- !u!114 &11400000
MonoBehaviour:
  m_ObjectHideFlags: 0
  m_CorrespondingSourceObject: {fileID: 0}
  m_PrefabInstance: {fileID: 0}
  m_PrefabAsset: {fileID: 0}
  m_GameObject: {fileID: 0}
  m_Enabled: 1
  m_EditorHideFlags: 0
  m_Script: {fileID: 11500000, guid: 987e62961f99447efb792a7934d3366a, type: 3}
  m_Name: Player_RunningHammerDown_SpawnObject_VFX
  m_EditorClassIdentifier: 
  SpawnTiming: 0.59
  ParentObjectName: Hammer Down VFX
  poolObjectType: 2
  shouldStickToParent: 0
