%YAML 1.1
%TAG !u! tag:unity3d.com,2011:
--- !u!114 &11400000
MonoBehaviour:
  m_ObjectHideFlags: 0
  m_CorrespondingSourceObject: {fileID: 0}
  m_PrefabInstance: {fileID: 0}
  m_PrefabAsset: {fileID: 0}
  m_GameObject: {fileID: 0}
  m_Enabled: 1
  m_EditorHideFlags: 0
  m_Script: {fileID: 11500000, guid: c0ddd987d6e934609b923a87979a1119, type: 3}
  m_Name: Player_RunningHammerDown_Attack
  m_EditorClassIdentifier: 
  AttackStartTime: 0.6
  AttackEndTime: 0.8
  ColliderNames: []
  deathType: 2
  MustCollide: 0
  MustFaceTheAttacker: 1
  LethalRange: 20
  MaxHits: 100
