%YAML 1.1
%TAG !u! tag:unity3d.com,2011:
--- !u!114 &11400000
MonoBehaviour:
  m_ObjectHideFlags: 0
  m_CorrespondingSourceObject: {fileID: 0}
  m_PrefabInstance: {fileID: 0}
  m_PrefabAsset: {fileID: 0}
  m_GameObject: {fileID: 0}
  m_Enabled: 1
  m_EditorHideFlags: 0
  m_Script: {fileID: 11500000, guid: a3ae28e8c975c44a39b0964f4c509c74, type: 3}
  m_Name: Player_Uppercut_MoveForward
  m_EditorClassIdentifier: 
  AllowEarlyTurn: 0
  LockDirection: 0
  Constant: 1
  SpeedGraph:
    serializedVersion: 2
    m_Curve:
    - serializedVersion: 3
      time: 0
      value: 1
      inSlope: -0.8797295
      outSlope: -0.8797295
      tangentMode: 34
      weightedMode: 0
      inWeight: 0
      outWeight: 0.33333334
    - serializedVersion: 3
      time: 0.48133877
      value: 0.5765521
      inSlope: -1.8583276
      outSlope: -1.8583276
      tangentMode: 0
      weightedMode: 0
      inWeight: 0.09107675
      outWeight: 0.33333334
    - serializedVersion: 3
      time: 0.5
      value: 0
      inSlope: -30.895716
      outSlope: -30.895716
      tangentMode: 34
      weightedMode: 0
      inWeight: 0.33333334
      outWeight: 0
    m_PreInfinity: 2
    m_PostInfinity: 2
    m_RotationOrder: 4
  Speed: 0.5
  BlockDistance: 0.1
  UseMomentum: 0
  MaxMomentum: 0
  ShouldClearMomentum: 0
  StartingMomentum: 0
