%YAML 1.1
%TAG !u! tag:unity3d.com,2011:
--- !u!114 &8200363159051544597
MonoBehaviour:
  m_ObjectHideFlags: 0
  m_CorrespondingSourceObject: {fileID: 0}
  m_PrefabInstance: {fileID: 0}
  m_PrefabAsset: {fileID: 0}
  m_GameObject: {fileID: 8887500926315480789}
  m_Enabled: 1
  m_EditorHideFlags: 0
  m_Script: {fileID: 11500000, guid: 3a47fd59c0a174fd09e6330b87c7d772, type: 3}
  m_Name: 
  m_EditorClassIdentifier: 
  PoolObjectType: 1
  ScheduledOffTime: 1
--- !u!1001 &610046534543876060
PrefabInstance:
  m_ObjectHideFlags: 0
  serializedVersion: 2
  m_Modification:
    m_TransformParent: {fileID: 0}
    m_Modifications:
    - target: {fileID: -5389309905847451227, guid: 474fbfc2af2de464d83a83ed17a5695b,
        type: 3}
      propertyPath: m_Materials.Array.data[0]
      value: 
      objectReference: {fileID: 2100000, guid: 96c0a6a4319510248b8bc107a5bf8fcd, type: 2}
    - target: {fileID: -4216859302048453862, guid: 474fbfc2af2de464d83a83ed17a5695b,
        type: 3}
      propertyPath: m_LocalPosition.x
      value: 0
      objectReference: {fileID: 0}
    - target: {fileID: -4216859302048453862, guid: 474fbfc2af2de464d83a83ed17a5695b,
        type: 3}
      propertyPath: m_LocalPosition.y
      value: 0
      objectReference: {fileID: 0}
    - target: {fileID: -4216859302048453862, guid: 474fbfc2af2de464d83a83ed17a5695b,
        type: 3}
      propertyPath: m_LocalPosition.z
      value: 0
      objectReference: {fileID: 0}
    - target: {fileID: -4216859302048453862, guid: 474fbfc2af2de464d83a83ed17a5695b,
        type: 3}
      propertyPath: m_LocalRotation.x
      value: 0
      objectReference: {fileID: 0}
    - target: {fileID: -4216859302048453862, guid: 474fbfc2af2de464d83a83ed17a5695b,
        type: 3}
      propertyPath: m_LocalRotation.y
      value: 0
      objectReference: {fileID: 0}
    - target: {fileID: -4216859302048453862, guid: 474fbfc2af2de464d83a83ed17a5695b,
        type: 3}
      propertyPath: m_LocalRotation.z
      value: 0
      objectReference: {fileID: 0}
    - target: {fileID: -4216859302048453862, guid: 474fbfc2af2de464d83a83ed17a5695b,
        type: 3}
      propertyPath: m_LocalRotation.w
      value: 1
      objectReference: {fileID: 0}
    - target: {fileID: -4216859302048453862, guid: 474fbfc2af2de464d83a83ed17a5695b,
        type: 3}
      propertyPath: m_RootOrder
      value: 0
      objectReference: {fileID: 0}
    - target: {fileID: -4216859302048453862, guid: 474fbfc2af2de464d83a83ed17a5695b,
        type: 3}
      propertyPath: m_LocalEulerAnglesHint.x
      value: 0
      objectReference: {fileID: 0}
    - target: {fileID: -4216859302048453862, guid: 474fbfc2af2de464d83a83ed17a5695b,
        type: 3}
      propertyPath: m_LocalEulerAnglesHint.y
      value: 0
      objectReference: {fileID: 0}
    - target: {fileID: -4216859302048453862, guid: 474fbfc2af2de464d83a83ed17a5695b,
        type: 3}
      propertyPath: m_LocalEulerAnglesHint.z
      value: 0
      objectReference: {fileID: 0}
    - target: {fileID: -4216859302048453862, guid: 474fbfc2af2de464d83a83ed17a5695b,
        type: 3}
      propertyPath: m_LocalScale.x
      value: 0.55
      objectReference: {fileID: 0}
    - target: {fileID: -4216859302048453862, guid: 474fbfc2af2de464d83a83ed17a5695b,
        type: 3}
      propertyPath: m_LocalScale.y
      value: 0.55
      objectReference: {fileID: 0}
    - target: {fileID: -4216859302048453862, guid: 474fbfc2af2de464d83a83ed17a5695b,
        type: 3}
      propertyPath: m_LocalScale.z
      value: 0.55
      objectReference: {fileID: 0}
    - target: {fileID: -927199367670048503, guid: 474fbfc2af2de464d83a83ed17a5695b,
        type: 3}
      propertyPath: m_Name
      value: ThorHammer
      objectReference: {fileID: 0}
    m_RemovedComponents: []
  m_SourcePrefab: {fileID: 100100000, guid: 474fbfc2af2de464d83a83ed17a5695b, type: 3}
--- !u!1 &8887500926315480789 stripped
GameObject:
  m_CorrespondingSourceObject: {fileID: -927199367670048503, guid: 474fbfc2af2de464d83a83ed17a5695b,
    type: 3}
  m_PrefabInstance: {fileID: 610046534543876060}
  m_PrefabAsset: {fileID: 0}
